Title: Grandpa's Theme
Artist: Eric Barone
Album: Stardew Valley
Tab Author: Matias Lavik


Track 1: Track 1

E|-----------2----|----------------|-2--------------|----------------|-----------2----|
B|-4---------0----|-5----4----5----|-----------4----|-0--------------|-4---------0----|
G|----------------|----------------|----------------|----------------|----------------|
D|------1---------|-2--------------|------1---------|------4----1----|------1---------|
A|-2--------------|----------------|-2--------------|----------------|-2--------------|
E|----------------|----------------|----------------|----------------|----------------|


E|-0----4--------2---|-2--------------|----------------|-----------2----|----------------|
B|-------------------|------0----2----|-----------2----|-4---------0----|-5----4----5----|
G|-------------------|-3--------------|------3---------|----------------|----------------|
D|-2---------4-------|----------------|-4--------------|------1---------|-2--------------|
A|-------------------|----------------|----------------|-2--------------|----------------|
E|-------------------|----------------|----------------|----------------|----------------|


E|-2--------------|-4-------2---------------|----------------------|----------------|
B|-----------0----|-----------------5-------|-4--------2---0-------|------0----2----|
G|----------------|-----4-------4-------4---|----------------------|-1---------1----|
D|------1---------|-2-----------------------|------1---------------|-2--------------|
A|-2--------------|-------------------------|-2--------------------|----------------|
E|----------------|-------------------------|----------------------|----------------|


E|----------------------|-----------4---6---|-7--------6---7-------|-6--------------|
B|-0--------------------|-0-----------------|--------------9-------|-----------7----|
G|----------------------|-------------------|------8---------------|-----------8----|
D|--------------1---4---|-------------------|-6--------------------|------8---------|
A|-2--------4-----------|-------------------|----------------------|-6--------------|
E|----------------------|-------------------|----------------------|----------------|


E|-4--------2---0----|----------------|------------------4---|-2---------2----|-0-----------------|
B|--------------0----|-4---------2----|--------------4-------|-----------2----|-----4---0---------|
G|------1------------|-----------3----|-4--------6-----------|------3---------|---------1---------|
D|-2-----------------|------4---------|--------------6-------|-4--------------|-2------------6----|
A|-------------------|-2--------------|------6---------------|----------------|-------------------|
E|-------------------|----------------|-4--------------------|----------------|-------------------|


E|-------------------------|-7--------6---4----|-------------------|----------------|
B|---------------------2---|--------------4----|-7-------------7---|-9----7---------|
G|-----------------3-------|------4------------|-----------8-------|-----------9----|
D|-4-----------4-----------|-6-----------------|------8------------|------9---------|
A|---------4---------------|-------------------|-6-----------------|-7--------------|
E|-2---6-------------------|-------------------|-------------------|----------------|


E|----------------|-------------------|------------|-------------------|-7----------|
B|----------------|---------------9---|-7----------|---------------4---|------------|
G|-8---------6----|-----------8-------|-------8----|-4----6------------|------------|
D|------8---------|-9-----11----------|------------|-----------4-------|------------|
A|-10-------------|-11----------------|-9----------|-------------------|------------|
E|----------------|-------------------|------------|-------------------|-7----------|



